<?xml version="1.0" standalone="no"?>
<!DOCTYPE svg PUBLIC "-//W3C//DTD SVG 1.1//EN" "http://www.w3.org/Graphics/SVG/1.1/DTD/svg11.dtd" >
<svg xmlns="http://www.w3.org/2000/svg">
<metadata>Generated by IcoMoon</metadata>
<defs>
<font id="icomoon" horiz-adv-x="1024">
<font-face units-per-em="1024" ascent="960" descent="-64" />
<missing-glyph horiz-adv-x="1024" />
<glyph unicode="&#x20;" horiz-adv-x="512" d="" />
<glyph unicode="&#xe900;" glyph-name="gamepad" horiz-adv-x="1054" d="M736.448 817.312c-45.312 0-133.312-64-208-64-74.656 0-168 64-208 64-274.656 0-432-738.624-226.656-738.624 173.344 0 196.672 216 433.984 216 192 0 304.672-213.376 432.672-213.376 205.312 0 50.688 736-224 736zM304.416 401.312c-79.52 0-144 64.512-144 144 0 79.52 64.48 144 144 144s144-64.48 144-144c0-79.488-64.448-144-144-144zM686.432 481.312c-17.696 0-32 14.304-32 32s14.304 32 32 32 32-14.304 32-32-14.304-32-32-32zM784.448 385.312c-17.696 0-32 14.304-32 32s14.304 32 32 32 32-14.304 32-32-14.336-32-32-32zM784.448 577.312c-17.696 0-32 14.304-32 32s14.304 32 32 32 32-14.304 32-32-14.336-32-32-32zM880.448 481.312c-17.696 0-32 14.304-32 32s14.304 32 32 32 32-14.304 32-32-14.336-32-32-32zM304.416 625.312c-44.16 0-80-35.808-80-80s35.84-80 80-80c44.192 0 80 35.808 80 80s-35.808 80-80 80z" />
<glyph unicode="&#xe901;" glyph-name="frustrated, emoticon1, smiley1, face1, angry" d="M366.312 676.622c-34.742 17.37-69.102 26.060-70.548 26.422-17.146 4.288-34.518-6.138-38.806-23.284-4.284-17.144 6.14-34.518 23.282-38.804 17.626-4.45 38.522-12.12 56.936-21.35-10.648-11.43-17.174-26.752-17.174-43.606 0-35.346 28.654-64 64-64s64 28.654 64 64c0 1.17-0.036 2.33-0.098 3.484-2.032 47.454-45.212 78.946-81.592 97.138zM512 960c-282.77 0-512-229.23-512-512s229.23-512 512-512 512 229.23 512 512-229.23 512-512 512zM236.498 136.336c10.706-5.324 22.756-8.336 35.502-8.336h480c12.746 0 24.796 3.012 35.502 8.338-73.378-64.914-169.828-104.338-275.502-104.338-105.672 0-202.124 39.424-275.502 104.336zM256 208v96c0 8.674 7.328 16 16 16h112v-128h-112c-8.672 0-16 7.326-16 16zM448 192v128h128v-128h-128zM640 192v128h112c8.674 0 16-7.326 16-16v-96c0-8.674-7.326-16-16-16h-112zM823.662 172.498c5.326 10.706 8.338 22.756 8.338 35.502v96c0 44.112-35.888 80-80 80h-480c-44.112 0-80-35.888-80-80v-96c0-12.746 3.012-24.796 8.336-35.502-64.912 73.378-104.336 169.828-104.336 275.502 0 229.75 186.25 416 416 416s416-186.25 416-416c0-105.674-39.424-202.124-104.338-275.502zM728.236 703.044c-1.448-0.362-35.806-9.052-70.548-26.422-36.378-18.192-79.558-49.684-81.592-97.138-0.060-1.154-0.098-2.314-0.098-3.484 0-35.346 28.654-64 64-64s64 28.654 64 64c0 16.854-6.526 32.176-17.174 43.606 18.414 9.23 39.31 16.9 56.936 21.35 17.142 4.286 27.566 21.66 23.284 38.804-4.29 17.146-21.662 27.572-38.808 23.284z" />
<glyph unicode="&#xe902;" glyph-name="sleepy, emoticon2, smiley2, face2" d="M512-64c282.77 0 512 229.23 512 512s-229.23 512-512 512-512-229.23-512-512 229.23-512 512-512zM512 864c229.75 0 416-186.25 416-416s-186.25-416-416-416-416 186.25-416 416 186.25 416 416 416zM640 288c0-88.366-57.308-160-128.002-160s-128.002 71.634-128.002 160c0 88.366 57.308 160 128.002 160s128.002-71.634 128.002-160zM416 620c-8.19 0-16.378 3.124-22.626 9.374-19.334 19.332-63.412 19.332-82.746 0-12.496-12.498-32.758-12.498-45.254 0-12.498 12.496-12.498 32.758 0 45.254 44.528 44.53 128.726 44.53 173.254 0 12.498-12.496 12.498-32.758 0-45.254-6.248-6.25-14.438-9.374-22.628-9.374zM736 620c-8.19 0-16.378 3.124-22.626 9.374-19.332 19.332-63.414 19.332-82.746 0-12.496-12.498-32.758-12.498-45.254 0-12.498 12.496-12.498 32.758 0 45.254 44.528 44.53 128.726 44.53 173.254 0 12.498-12.496 12.498-32.758 0-45.254-6.248-6.25-14.438-9.374-22.628-9.374z" />
<glyph unicode="&#xe903;" glyph-name="wondering, emoticon3, smiley3, face3, question" d="M512-64c282.77 0 512 229.23 512 512s-229.23 512-512 512-512-229.23-512-512 229.23-512 512-512zM512 864c229.75 0 416-186.25 416-416s-186.25-416-416-416-416 186.25-416 416 186.25 416 416 416zM745.74 358.38l22.488-76.776-437.008-128.002-22.488 76.776zM256 640c0 35.346 28.654 64 64 64s64-28.654 64-64c0-35.346-28.654-64-64-64s-64 28.654-64 64zM640 640c0 35.346 28.654 64 64 64s64-28.654 64-64c0-35.346-28.654-64-64-64s-64 28.654-64 64z" />
<glyph unicode="&#xe904;" glyph-name="hipster, emoticon4, smiley4, mustache, face4" d="M512-64c282.77 0 512 229.23 512 512s-229.23 512-512 512-512-229.23-512-512 229.23-512 512-512zM512 864c229.75 0 416-186.25 416-416s-186.25-416-416-416-416 186.25-416 416 186.25 416 416 416zM256 640c0 35.346 28.654 64 64 64s64-28.654 64-64-28.654-64-64-64-64 28.654-64 64zM640 640c0 35.346 28.654 64 64 64s64-28.654 64-64-28.654-64-64-64-64 28.654-64 64zM675.882 419.882c-37.49 37.49-98.276 37.49-135.766 0s-37.49-98.276 0-135.766c1.204-1.204 2.434-2.368 3.684-3.492 86.528-78.512 288.2 1.842 288.2 103.376-62-40-110.45-9.786-156.118 35.882zM348.118 419.882c37.49 37.49 98.276 37.49 135.766 0s37.49-98.276 0-135.766c-1.204-1.204-2.434-2.368-3.684-3.492-86.528-78.512-288.2 1.842-288.2 103.376 62-40 110.45-9.786 156.118 35.882z" />
<glyph unicode="&#xe905;" glyph-name="neutral, emoticon5, smiley5, face5" d="M512-64c282.77 0 512 229.23 512 512s-229.23 512-512 512-512-229.23-512-512 229.23-512 512-512zM512 864c229.75 0 416-186.25 416-416s-186.25-416-416-416-416 186.25-416 416 186.25 416 416 416zM256 640c0-35.346 28.654-64 64-64s64 28.654 64 64-28.654 64-64 64-64-28.654-64-64zM640 640c0-35.346 28.654-64 64-64s64 28.654 64 64-28.654 64-64 64-64-28.654-64-64zM384 256h256v-64h-256v64z" />
<glyph unicode="&#xe906;" glyph-name="confused, emoticon6, smiley6, face6, bewildered" d="M512-64c282.77 0 512 229.23 512 512s-229.23 512-512 512-512-229.23-512-512 229.23-512 512-512zM512 864c229.75 0 416-186.25 416-416s-186.25-416-416-416-416 186.25-416 416 186.25 416 416 416zM256 640c0 35.346 28.654 64 64 64s64-28.654 64-64c0-35.346-28.654-64-64-64s-64 28.654-64 64zM640 640c0 35.346 28.654 64 64 64s64-28.654 64-64c0-35.346-28.654-64-64-64s-64 28.654-64 64zM726.106 320h64.864c9.246-72.506-32.452-144.53-103.958-170.56-82.904-30.176-174.9 12.716-205.080 95.616-18.108 49.744-73.306 75.482-123.048 57.372-45.562-16.588-70.956-64.298-60.988-110.424h-64.86c-9.242 72.508 32.45 144.528 103.956 170.56 82.904 30.178 174.902-12.716 205.082-95.614 18.104-49.748 73.306-75.482 123.044-57.372 45.562 16.584 70.956 64.298 60.988 110.422z" />
<glyph unicode="&#xe907;" glyph-name="baffled, emoticon7, smiley7, shocked, face7" d="M512-64c282.77 0 512 229.23 512 512s-229.23 512-512 512-512-229.23-512-512 229.23-512 512-512zM512 864c229.75 0 416-186.25 416-416s-186.25-416-416-416-416 186.25-416 416 186.25 416 416 416zM384 544c0-17.673-14.327-32-32-32s-32 14.327-32 32c0 17.673 14.327 32 32 32s32-14.327 32-32zM352 640c53.020 0 96-42.98 96-96s-42.98-96-96-96-96 42.98-96 96 42.98 96 96 96zM352 704c-88.224 0-160-71.776-160-160s71.776-160 160-160 160 71.776 160 160-71.776 160-160 160v0zM704 544c0-17.673-14.327-32-32-32s-32 14.327-32 32c0 17.673 14.327 32 32 32s32-14.327 32-32zM672 640c53.020 0 96-42.98 96-96s-42.98-96-96-96-96 42.98-96 96 42.98 96 96 96zM672 704c-88.224 0-160-71.776-160-160s71.776-160 160-160 160 71.776 160 160-71.776 160-160 160v0zM384 256h256v-64h-256v64z" />
<glyph unicode="&#xe908;" glyph-name="shocked1, emoticon8, smiley8, face8" d="M512-64c282.77 0 512 229.23 512 512s-229.23 512-512 512-512-229.23-512-512 229.23-512 512-512zM512 864c229.75 0 416-186.25 416-416s-186.25-416-416-416-416 186.25-416 416 186.25 416 416 416zM384 256c0 70.692 57.308 128 128 128s128-57.308 128-128c0-70.692-57.308-128-128-128s-128 57.308-128 128zM640 608c0 53.019 28.654 96 64 96s64-42.981 64-96c0-53.019-28.654-96-64-96s-64 42.981-64 96zM256 608c0 53.019 28.654 96 64 96s64-42.981 64-96c0-53.019-28.654-96-64-96s-64 42.981-64 96z" />
<glyph unicode="&#xe909;" glyph-name="evil, emoticon9, smiley9, face9" d="M639.996 512c-35.346 0-64 28.654-63.998 64.002 0 1.17 0.036 2.33 0.098 3.484 2.032 47.454 45.212 78.946 81.592 97.138 34.742 17.37 69.102 26.060 70.548 26.422 17.146 4.288 34.518-6.138 38.806-23.284 4.284-17.146-6.14-34.518-23.284-38.806-17.626-4.45-38.522-12.12-56.936-21.35 10.648-11.43 17.174-26.752 17.174-43.606 0-35.346-28.654-64-64-64zM280.242 640.956c-17.144 4.286-27.568 21.66-23.282 38.804 4.286 17.146 21.66 27.572 38.806 23.284 1.444-0.362 35.806-9.050 70.548-26.422 36.382-18.19 79.56-49.684 81.592-97.138 0.062-1.154 0.098-2.316 0.098-3.484 0-35.346-28.654-64-64-64s-64 28.654-64 64c0 16.854 6.526 32.176 17.174 43.606-18.414 9.23-39.312 16.9-56.936 21.35zM512 224c81.554 0 152.924 43.592 192.098 108.74l82.328-49.396c-55.962-93.070-157.916-155.344-274.426-155.344s-218.464 62.274-274.426 155.344l82.328 49.396c39.174-65.148 110.542-108.74 192.098-108.74zM1024 896c0 45.516-9.524 88.8-26.652 128-33.576-76.836-96.448-137.932-174.494-169.178-86.194 65.96-193.936 105.178-310.854 105.178s-224.66-39.218-310.854-105.178c-78.048 31.246-140.918 92.342-174.494 169.178-17.128-39.2-26.652-82.484-26.652-128 0-73.574 24.85-141.328 66.588-195.378-42.37-74.542-66.588-160.75-66.588-252.622 0-282.77 229.23-512 512-512s512 229.23 512 512c0 91.872-24.218 178.080-66.588 252.622 41.738 54.050 66.588 121.804 66.588 195.378zM512 32c-229.75 0-416 186.25-416 416s186.25 416 416 416 416-186.25 416-416-186.25-416-416-416z" />
<glyph unicode="&#xe90a;" glyph-name="angry1, emoticon10, smiley10, face10, rage" d="M512-64c282.77 0 512 229.23 512 512s-229.23 512-512 512-512-229.23-512-512 229.23-512 512-512zM512 864c229.75 0 416-186.25 416-416s-186.25-416-416-416-416 186.25-416 416 186.25 416 416 416zM704.098 179.26c-39.174 65.148-110.544 108.74-192.098 108.74-81.556 0-152.924-43.592-192.098-108.74l-82.328 49.396c55.96 93.070 157.916 155.344 274.426 155.344 116.508 0 218.464-62.274 274.426-155.344l-82.328-49.396zM767.042 679.76c4.284-17.144-6.14-34.518-23.282-38.804-17.626-4.45-38.522-12.12-56.936-21.35 10.648-11.43 17.174-26.752 17.174-43.606 0-35.346-28.654-64-64-64s-64 28.654-64 64c0 1.17 0.036 2.33 0.098 3.484 2.032 47.454 45.212 78.946 81.592 97.138 34.742 17.37 69.102 26.060 70.548 26.422 17.146 4.288 34.518-6.138 38.806-23.284zM256.958 679.76c4.288 17.146 21.66 27.572 38.806 23.284 1.446-0.362 35.806-9.052 70.548-26.422 36.38-18.192 79.56-49.684 81.592-97.138 0.062-1.154 0.098-2.314 0.098-3.484 0-35.346-28.654-64-64-64s-64 28.654-64 64c0 16.854 6.526 32.176 17.174 43.606-18.414 9.23-39.31 16.9-56.936 21.35-17.142 4.286-27.566 21.66-23.282 38.804z" />
<glyph unicode="&#xe90b;" glyph-name="cool, emoticon11, smiley11, face11" d="M512-64c282.77 0 512 229.23 512 512s-229.23 512-512 512-512-229.23-512-512 229.23-512 512-512zM512 864c229.75 0 416-186.25 416-416s-186.25-416-416-416-416 186.25-416 416 186.25 416 416 416zM800 704c17.6 0 32-14.4 32-32v-96c0-35.2-28.8-64-64-64h-128c-35.2 0-64 28.8-64 64h-128c0-35.2-28.8-64-64-64h-128c-35.2 0-64 28.8-64 64v96c0 17.6 14.4 32 32 32h192c17.6 0 32-14.4 32-32v-32h128v32c0 17.6 14.4 32 32 32h192zM512 192c93.208 0 174.772 49.818 219.546 124.278l54.88-32.934c-55.966-93.070-157.916-155.344-274.426-155.344-48.458 0-94.384 10.796-135.54 30.082l33.162 55.278c31.354-13.714 65.964-21.36 102.378-21.36z" />
<glyph unicode="&#xe90c;" glyph-name="grin, emoticon12, smiley12, face12" d="M512-64c282.77 0 512 229.23 512 512s-229.23 512-512 512-512-229.23-512-512 229.23-512 512-512zM512 864c229.75 0 416-186.25 416-416s-186.25-416-416-416-416 186.25-416 416 186.25 416 416 416zM192 448v-64c0-140.8 115.2-256 256-256h128c140.8 0 256 115.2 256 256v64h-640zM384 203.012c-26.538 9.458-50.924 24.822-71.544 45.446-36.406 36.402-56.456 84.54-56.456 135.542h128v-180.988zM576 192h-128v192h128v-192zM711.544 248.458c-20.624-20.624-45.010-35.988-71.544-45.446v180.988h128c0-51.002-20.048-99.14-56.456-135.542zM225.352 576c0.002 0 0 0 0 0 9.768 0 18.108 7.056 19.724 16.69 6.158 36.684 37.668 63.31 74.924 63.31s68.766-26.626 74.924-63.31c1.616-9.632 9.956-16.69 19.722-16.69 9.768 0 18.108 7.056 19.724 16.688 1.082 6.436 1.628 12.934 1.628 19.312 0 63.962-52.038 116-116 116s-116-52.038-116-116c0-6.378 0.548-12.876 1.628-19.312 1.62-9.632 9.96-16.688 19.726-16.688zM609.352 576c0.002 0 0 0 0 0 9.77 0 18.112 7.056 19.724 16.69 6.158 36.684 37.668 63.31 74.924 63.31s68.766-26.626 74.924-63.31c1.616-9.632 9.958-16.69 19.722-16.69s18.108 7.056 19.722 16.688c1.082 6.436 1.628 12.934 1.628 19.312 0 63.962-52.038 116-116 116s-116-52.038-116-116c0-6.378 0.544-12.876 1.626-19.312 1.624-9.632 9.964-16.688 19.73-16.688z" />
<glyph unicode="&#xe90d;" glyph-name="wink, emoticon13, smiley13, face13" d="M512-64c282.77 0 512 229.23 512 512s-229.23 512-512 512-512-229.23-512-512 229.23-512 512-512zM512 864c229.75 0 416-186.25 416-416s-186.25-416-416-416-416 186.25-416 416 186.25 416 416 416zM542.74 248.972c140.248 27.706 249.11 91.542 288.454 176.594-21.654-167.956-161.518-297.566-330.85-297.566-119.242 0-223.858 64.282-282.892 160.948 70.41-55.058 194.534-65.808 325.288-39.976zM640 608c0 53.019 28.654 96 64 96s64-42.981 64-96c0-53.019-28.654-96-64-96s-64 42.981-64 96zM352 588.5c-41.796 0-77.334-15.656-90.516-37.5-3.54 5.866-5.484 32.174-5.484 38.75 0 31.066 42.98 56.25 96 56.25s96-25.184 96-56.25c0-6.576-1.944-32.884-5.484-38.75-13.182 21.844-48.72 37.5-90.516 37.5z" />
<glyph unicode="&#xe90e;" glyph-name="sad, emoticon14, smiley14, face14" d="M512-64c282.77 0 512 229.23 512 512s-229.23 512-512 512-512-229.23-512-512 229.23-512 512-512zM512 864c229.75 0 416-186.25 416-416s-186.25-416-416-416-416 186.25-416 416 186.25 416 416 416zM256 640c0 35.346 28.654 64 64 64s64-28.654 64-64c0-35.346-28.654-64-64-64s-64 28.654-64 64zM640 640c0 35.346 28.654 64 64 64s64-28.654 64-64c0-35.346-28.654-64-64-64s-64 28.654-64 64zM319.902 179.26l-82.328 49.396c55.962 93.070 157.916 155.344 274.426 155.344 116.508 0 218.462-62.274 274.426-155.344l-82.328-49.396c-39.174 65.148-110.542 108.74-192.098 108.74-81.558 0-152.924-43.592-192.098-108.74z" />
<glyph unicode="&#xe90f;" glyph-name="tongue, emoticon15, smiley15, face15" d="M512-64c282.77 0 512 229.23 512 512s-229.23 512-512 512-512-229.23-512-512 229.23-512 512-512zM512 864c229.75 0 416-186.25 416-416s-186.25-416-416-416-416 186.25-416 416 186.25 416 416 416zM256 640c0 35.346 28.654 64 64 64s64-28.654 64-64c0-35.346-28.654-64-64-64s-64 28.654-64 64zM640 640c0 35.346 28.654 64 64 64s64-28.654 64-64c0-35.346-28.654-64-64-64s-64 28.654-64 64zM768 384v-64h-64v-96c0-53.020-42.98-96-96-96s-96 42.98-96 96v96h-256v64h512z" />
<glyph unicode="&#xe910;" glyph-name="smile, emoticon16, smiley16, face16" d="M512-64c282.77 0 512 229.23 512 512s-229.23 512-512 512-512-229.23-512-512 229.23-512 512-512zM512 864c229.75 0 416-186.25 416-416s-186.25-416-416-416-416 186.25-416 416 186.25 416 416 416zM256 640c0 35.346 28.654 64 64 64s64-28.654 64-64c0-35.346-28.654-64-64-64s-64 28.654-64 64zM640 640c0 35.346 28.654 64 64 64s64-28.654 64-64c0-35.346-28.654-64-64-64s-64 28.654-64 64zM704.098 332.74l82.328-49.396c-55.962-93.070-157.916-155.344-274.426-155.344s-218.464 62.274-274.426 155.344l82.328 49.396c39.174-65.148 110.542-108.74 192.098-108.74s152.924 43.592 192.098 108.74z" />
<glyph unicode="&#xe911;" glyph-name="happy, emoticon17, smiley17, face17" d="M512-64c282.77 0 512 229.23 512 512s-229.23 512-512 512-512-229.23-512-512 229.23-512 512-512zM512 864c229.75 0 416-186.25 416-416s-186.25-416-416-416-416 186.25-416 416 186.25 416 416 416zM512 361.24c115.95 0 226.23 30.806 320 84.92-14.574-178.438-153.128-318.16-320-318.16-166.868 0-305.422 139.872-320 318.304 93.77-54.112 204.050-85.064 320-85.064zM256 608c0 53.019 28.654 96 64 96s64-42.981 64-96c0-53.019-28.654-96-64-96s-64 42.981-64 96zM640 608c0 53.019 28.654 96 64 96s64-42.981 64-96c0-53.019-28.654-96-64-96s-64 42.981-64 96z" />
<glyph unicode="&#xe912;" glyph-name="dollar" d="M0 160v576h1024v-576h-1024zM64 673.984v-449.984h896v449.984h-896zM672 448c0 106.016-71.616 192-160 192h416v-384h-416c88.384 0 160 85.984 160 192zM800 384c26.496 0 48 28.672 48 64s-21.504 64-48 64-48-28.672-48-64 21.504-64 48-64zM579.776 528.704c-0.48-1.76-1.152-3.008-1.984-3.808-0.864-0.8-2.016-1.184-3.488-1.184s-3.776 0.896-7.008 2.752c-3.2 1.888-7.136 3.872-11.776 6.048-4.672 2.176-10.048 4.16-16.192 5.984-6.144 1.792-12.864 2.656-20.192 2.656-5.76 0-10.752-0.672-15.008-2.080-4.256-1.376-7.84-3.328-10.688-5.76-2.88-2.464-4.992-5.44-6.4-8.864-1.376-3.424-2.080-7.104-2.080-10.944 0-5.76 1.568-10.72 4.704-14.912s7.328-7.936 12.608-11.2c5.28-3.296 11.232-6.336 17.92-9.184 6.624-2.88 13.44-5.92 20.384-9.088 6.944-3.232 13.728-6.848 20.384-10.912 6.688-4.064 12.64-8.928 17.824-14.592s9.376-12.32 12.608-19.968c3.2-7.68 4.768-16.672 4.768-27.104 0-13.6-2.496-25.504-7.552-35.776-5.088-10.24-11.936-18.816-20.64-25.664-8.672-6.88-18.784-12.032-30.368-15.488-1.472-0.448-3.072-0.64-4.576-0.992v-34.944h-31.456v30.816c-0.416 0-0.768-0.064-1.152-0.064-8.928 0-17.248 0.704-24.896 2.144-7.68 1.472-14.432 3.232-20.288 5.248-5.888 2.048-10.752 4.192-14.688 6.432s-6.752 4.224-8.48 5.952c-1.728 1.728-2.976 4.224-3.712 7.488-0.736 3.296-1.12 7.968-1.12 14.112 0 4.128 0.128 7.584 0.416 10.4s0.704 5.056 1.312 6.816 1.376 2.976 2.4 3.712c0.992 0.704 2.144 1.088 3.488 1.088 1.856 0 4.48-1.088 7.904-3.296 3.392-2.208 7.776-4.64 13.088-7.296 5.344-2.688 11.68-5.088 19.104-7.328 7.392-2.176 15.968-3.296 25.696-3.296 6.4 0 12.128 0.768 17.184 2.304s9.376 3.68 12.896 6.496 6.208 6.272 8.096 10.4c1.888 4.16 2.816 8.736 2.816 13.856 0 5.856-1.632 10.88-4.8 15.104-3.2 4.192-7.36 7.904-12.512 11.2-5.12 3.264-10.944 6.304-17.472 9.184s-13.248 5.92-20.192 9.088c-6.912 3.2-13.664 6.816-20.192 10.912-6.528 4.064-12.352 8.896-17.472 14.56s-9.312 12.384-12.48 20.096c-3.2 7.712-4.8 16.992-4.8 27.776 0 12.416 2.304 23.296 6.88 32.672 4.608 9.376 10.784 17.184 18.592 23.36s16.992 10.816 27.584 13.888c5.44 1.6 11.072 2.72 16.832 3.488v33.088h31.456v-33.088c1.248-0.16 2.496-0.096 3.744-0.288 6.112-0.928 11.872-2.176 17.184-3.776 5.344-1.568 10.048-3.328 14.208-5.344 4.128-1.984 6.848-3.616 8.192-4.96 1.344-1.312 2.208-2.432 2.72-3.36 0.448-0.928 0.832-2.176 1.184-3.712 0.32-1.536 0.576-3.456 0.672-5.824 0.128-2.304 0.192-5.216 0.192-8.672 0-3.872-0.096-7.168-0.288-9.856-0.288-2.528-0.608-4.768-1.088-6.496zM352 448c0-106.016 71.616-192 160-192h-416v384h416c-88.384 0-160-85.984-160-192zM224 512c-26.528 0-48-28.672-48-64s21.472-64 48-64c26.496 0 48 28.672 48 64s-21.504 64-48 64z" />
<glyph unicode="&#xe913;" glyph-name="safe" d="M864 32l-63.968 1.984v-65.984h-96v64h-382.016l-1.984-64h-96v62.016l-64.032 1.984c-35.328 0-64 28.672-64 64v768c0 35.328 28.672 64 64 64h704c35.328 0 64-28.672 64-64v-768c0-35.328-28.672-64-64-64zM832 832h-640v-126.656l-31.328 0.64v-98.656h31.328v-253.344h-32v-97.984h32v-128h640v704zM800 160h-576v96h32v97.984h-32v254.016h32l0.672 97.344h-32.672v94.656h576v-640zM465.984 622.016c-70.688 0-128-57.312-128-128s57.312-128 128-128c70.72 0 128 57.312 128 128s-57.28 128-128 128zM752 591.424c0 17.696-14.304 32-32 32-17.664 0-32-14.304-32-32 0-11.712 6.624-21.536 16-27.104v-169.248c-9.376-5.568-16-15.36-16-27.104 0-17.664 14.336-32 32-32 17.696 0 32 14.336 32 32 0 12.608-7.424 23.232-17.984 28.448v166.56c10.56 5.248 17.984 15.872 17.984 28.448zM464 440c-26.496 0-48 21.504-48 48 0 26.528 21.504 48 48 48 26.528 0 48-21.472 48-48 0-26.496-21.472-48-48-48z" />
<glyph unicode="&#xe914;" glyph-name="radioactive" d="M512 1.344c-246.688 0-446.656 199.968-446.656 446.656s199.968 446.656 446.656 446.656c246.688 0 446.688-199.968 446.688-446.656s-200-446.656-446.688-446.656zM733.44 782.336c-119.136 79.968-220.128 66.816-220.128 66.816l-0.096-288.256c-40.608-1.024-75.52-23.424-94.656-56.352l-244.064 156.352c0 0-64.672-63.328-64.672-206.848s61.984-212.864 61.984-212.864l247.136 149.632c19.232-32.608 53.984-54.688 94.304-55.712l0.096-292.288c0 0 101.024-13.152 220.128 66.784 119.2 79.968 138.112 162.272 138.112 162.272l-255.424 124.384c8.128 15.552 13.12 32.992 13.12 51.744 0 16.96-4 32.864-10.688 47.328l258.368 122.048c-0.032 0.032-24.32 85.024-143.52 164.96zM516.032 383.328c-35.712 0-64.672 28.96-64.672 64.672s28.96 64.672 64.672 64.672c35.712 0 64.64-28.96 64.64-64.672s-28.928-64.672-64.64-64.672z" />
<glyph unicode="&#xe915;" glyph-name="rocket" d="M747.872 15.072c0 0 10.72 64.384-55.392 143.008 64.352 180.512 73.28 344.896 73.28 344.896s132.256-30.4 132.256-160.832c-0.032-223.392-150.144-327.072-150.144-327.072zM383.328 93.504c0 0-88.576 284.256-88.576 402.176 0 53.056 5.984 100.256 15.296 143.104h403.52c9.376-42.88 15.392-90.112 15.392-143.136 0-116.128-88.32-402.144-88.32-402.144h-257.312zM511.68 573.792c-45.376 0-82.176-36.8-82.176-82.208 0-45.376 36.8-82.208 82.176-82.208 45.408 0 82.208 36.8 82.208 82.208 0.032 45.408-36.8 82.208-82.208 82.208zM494.016 940.928v111.936h32v-109.088c36.576-26.624 135.552-111.296 180.32-274.4h-389.12c43.264 158.624 137.472 242.368 176.8 271.552zM276.128 15.072c0 0-150.112 103.68-150.112 327.072 0 130.432 132.256 160.832 132.256 160.832s8.928-164.384 73.248-344.896c-66.144-78.656-55.392-143.008-55.392-143.008zM566.112-1.44l-26.816 26.816-28.576-89.376-33.984 89.376-23.232-46.432-33.984 84h184.064l-37.472-64.384z" />
<glyph unicode="&#xe916;" glyph-name="pacman" d="M964.73 781.196c-93.902 109.45-233.21 178.804-388.73 178.804-282.77 0-512-229.23-512-512s229.23-512 512-512c155.52 0 294.828 69.356 388.728 178.804l-324.728 333.196 324.73 333.196zM704 839.398c39.432 0 71.398-31.964 71.398-71.398 0-39.432-31.966-71.398-71.398-71.398s-71.398 31.966-71.398 71.398c0 39.432 31.966 71.398 71.398 71.398z" />
<glyph unicode="&#xe917;" glyph-name="spades" d="M817.57 611.85c-193.566 143.858-260.266 259.018-305.566 348.148v0c-0.004 0-0.004 0.002-0.004 0.002v-0.002c-45.296-89.13-112-204.292-305.566-348.148-330.036-245.286-19.376-587.668 253.758-399.224-17.796-116.93-78.53-202.172-140.208-238.882v-37.744h384.032v37.74c-61.682 36.708-122.41 121.954-140.212 238.884 273.136-188.446 583.8 153.94 253.766 399.226z" />
<glyph unicode="&#xe918;" glyph-name="clubs" d="M786.832 567.228c-59.032 0-112.086-24.596-149.852-64.694-15.996-16.984-43.762-37.112-73.8-54.81 14.11 53.868 58.676 121.7 89.628 151.456 39.64 38.17 63.984 91.83 63.984 151.5 0.006 114.894-91.476 208.096-204.788 209.32-113.32-1.222-204.796-94.426-204.796-209.318 0-59.672 24.344-113.33 63.986-151.5 30.954-29.756 75.52-97.588 89.628-151.456-30.042 17.7-57.806 37.826-73.8 54.81-37.768 40.098-90.82 64.694-149.85 64.694-114.386 0-207.080-93.664-207.080-209.328 0-115.638 92.692-209.338 207.080-209.338 59.042 0 112.082 25.356 149.85 65.452 16.804 17.872 46.444 40.138 78.292 58.632-3.002-147.692-73.532-256.168-145.318-298.906v-37.742h384.014v37.74c-71.792 42.736-142.32 151.216-145.32 298.906 31.852-18.494 61.488-40.768 78.292-58.632 37.766-40.094 90.808-65.452 149.852-65.452 114.386 0 207.078 93.7 207.078 209.338-0.002 115.664-92.692 209.328-207.080 209.328z" />
<glyph unicode="&#xe919;" glyph-name="diamonds" d="M512 960l-320-512 320-512 320 512z" />
<glyph unicode="&#xe9a2;" glyph-name="mug" d="M960 640h-192v96c0 88.366-171.922 160-384 160s-384-71.634-384-160v-640c0-88.366 171.922-160 384-160s384 71.634 384 160v96h192c35.346 0 64 28.654 64 64v320c0 35.346-28.654 64-64 64zM176.056 701.602c-36.994 12.19-59.408 25.246-71.41 34.398 12.004 9.152 34.416 22.208 71.41 34.398 57.942 19.090 131.79 29.602 207.944 29.602s150.004-10.512 207.944-29.602c36.994-12.188 59.408-25.246 71.41-34.398-12.002-9.152-34.416-22.208-71.41-34.398-57.94-19.090-131.79-29.602-207.944-29.602s-150.002 10.512-207.944 29.602zM896 320h-128v192h128v-192z" />
<glyph unicode="&#xe9b4;" glyph-name="shield" d="M960 960l-448-128-448 128c0 0-4.5-51.698 0-128l448-140.090 448 140.090c4.498 76.302 0 128 0 128zM72.19 764.894c23.986-250.696 113.49-672.234 439.81-828.894 326.32 156.66 415.824 578.198 439.81 828.894l-439.81-165.358-439.81 165.358z" />
<glyph unicode="&#xe9da;" glyph-name="heart" d="M755.188 896c-107.63 0-200.258-87.554-243.164-179-42.938 91.444-135.578 179-243.216 179-148.382 0-268.808-120.44-268.808-268.832 0-301.846 304.5-380.994 512.022-679.418 196.154 296.576 511.978 387.206 511.978 679.418 0 148.392-120.43 268.832-268.812 268.832z" />
</font></defs></svg>