// Jest Snapshot v1, https://goo.gl/fbAQLP

exports[`Landing Template should render de landing template layout 1`] = `
<section
  className="landing-page"
>
  <nav
    className="landing-page--nav"
  >
    <div
      className="nav--player-icon"
    />
    <div
      className="nav--player-data"
    >
      <div
        className="player-name"
      />
      <div
        className="player-chips"
      />
    </div>
    <div
      className="nav--player-about"
    />
  </nav>
  <section
    className="landing-page--dashboard"
  >
    <div
      className="landing-page--player"
    >
      <div
        className="player--heading"
      >
        <div
          className="player--name"
        />
        <div
          className="player--icon"
        />
        <div
          className="player--chips"
        >
          <div
            className="player--chips-amount"
          />
          <div
            className="player--chips-get-more"
          />
        </div>
      </div>
      <div
        className="player--stats"
      />
    </div>
    <div
      className="landing-page--rooms"
    >
      <div
        className="rooms--add"
      />
      <ul
        className="rooms--list"
      >
        <li
          className="room--list-room"
        >
          <Link
            className="room--link"
            to="/table"
          >
            <div
              className="room--name"
            />
            <div
              className="room--num-players"
            />
            <div
              className="room--enter"
            />
          </Link>
        </li>
        <li
          className="room--list-room"
        >
          <Link
            className="room--link"
            to="/table"
          >
            <div
              className="room--name"
            />
            <div
              className="room--num-players"
            />
            <div
              className="room--enter"
            />
          </Link>
        </li>
        <li
          className="room--list-room"
        >
          <Link
            className="room--link"
            to="/table"
          >
            <div
              className="room--name"
            />
            <div
              className="room--num-players"
            />
            <div
              className="room--enter"
            />
          </Link>
        </li>
        <li
          className="room--list-room"
        >
          <Link
            className="room--link"
            to="/table"
          >
            <div
              className="room--name"
            />
            <div
              className="room--num-players"
            />
            <div
              className="room--enter"
            />
          </Link>
        </li>
        <li
          className="room--list-room"
        >
          <Link
            className="room--link"
            to="/table"
          >
            <div
              className="room--name"
            />
            <div
              className="room--num-players"
            />
            <div
              className="room--enter"
            />
          </Link>
        </li>
        <li
          className="room--list-room"
        >
          <Link
            className="room--link"
            to="/table"
          >
            <div
              className="room--name"
            />
            <div
              className="room--num-players"
            />
            <div
              className="room--enter"
            />
          </Link>
        </li>
      </ul>
    </div>
  </section>
</section>
`;
